C:\Users\rodrigo.martinezusam\Documents\NetBeansProjects\participante19\src\main\java\com\participante19\managed\clienteManagedBean.java
C:\Users\rodrigo.martinezusam\Documents\NetBeansProjects\participante19\src\main\java\com\participante19\entity\categoria.java
C:\Users\rodrigo.martinezusam\Documents\NetBeansProjects\participante19\src\main\java\com\participante19\ejb\detalleFacade.java
C:\Users\rodrigo.martinezusam\Documents\NetBeansProjects\participante19\src\main\java\com\participante19\ejb\detalleFacadeLocal.java
C:\Users\rodrigo.martinezusam\Documents\NetBeansProjects\participante19\src\main\java\com\participante19\managed\detalleManagedBean.java
C:\Users\rodrigo.martinezusam\Documents\NetBeansProjects\participante19\src\main\java\com\participante19\ejb\facturaFacade.java
C:\Users\rodrigo.martinezusam\Documents\NetBeansProjects\participante19\src\main\java\com\participante19\ejb\modo_pagoFacadeLocal.java
C:\Users\rodrigo.martinezusam\Documents\NetBeansProjects\participante19\src\main\java\com\participante19\ejb\clienteFacadeLocal.java
C:\Users\rodrigo.martinezusam\Documents\NetBeansProjects\participante19\src\main\java\com\participante19\ejb\productoFacadeLocal.java
C:\Users\rodrigo.martinezusam\Documents\NetBeansProjects\participante19\src\main\java\com\participante19\entity\detalle.java
C:\Users\rodrigo.martinezusam\Documents\NetBeansProjects\participante19\src\main\java\com\participante19\ejb\AbstractFacade.java
C:\Users\rodrigo.martinezusam\Documents\NetBeansProjects\participante19\src\main\java\com\participante19\entity\cliente.java
C:\Users\rodrigo.martinezusam\Documents\NetBeansProjects\participante19\src\main\java\com\participante19\entity\modo_pago.java
C:\Users\rodrigo.martinezusam\Documents\NetBeansProjects\participante19\src\main\java\com\participante19\ejb\categoriaFacadeLocal.java
C:\Users\rodrigo.martinezusam\Documents\NetBeansProjects\participante19\src\main\java\com\participante19\ejb\productoFacade.java
C:\Users\rodrigo.martinezusam\Documents\NetBeansProjects\participante19\src\main\java\com\participante19\managed\facturaManagedBean.java
C:\Users\rodrigo.martinezusam\Documents\NetBeansProjects\participante19\src\main\java\com\participante19\managed\productoManagedBean.java
C:\Users\rodrigo.martinezusam\Documents\NetBeansProjects\participante19\src\main\java\com\participante19\entity\producto.java
C:\Users\rodrigo.martinezusam\Documents\NetBeansProjects\participante19\src\main\java\com\participante19\managed\modo_pagoManagedBean.java
C:\Users\rodrigo.martinezusam\Documents\NetBeansProjects\participante19\src\main\java\com\participante19\managed\categoriaManagedBean.java
C:\Users\rodrigo.martinezusam\Documents\NetBeansProjects\participante19\src\main\java\com\participante19\ejb\modo_pagoFacade.java
C:\Users\rodrigo.martinezusam\Documents\NetBeansProjects\participante19\src\main\java\com\participante19\ejb\clienteFacade.java
C:\Users\rodrigo.martinezusam\Documents\NetBeansProjects\participante19\src\main\java\com\participante19\entity\factura.java
C:\Users\rodrigo.martinezusam\Documents\NetBeansProjects\participante19\src\main\java\com\participante19\ejb\categoriaFacade.java
C:\Users\rodrigo.martinezusam\Documents\NetBeansProjects\participante19\src\main\java\com\participante19\ejb\facturaFacadeLocal.java
