com\mensaje\conf\Config.class
com\mensaje\util\Dao.class
com\mensaje\dao\MensajeDao.class
com\mensaje\models\Mensaje.class
com\mensaje\conf\WebIni.class
com\mensaje\ctrl\MensajeBean.class
com\mensaje\util\tst.class
com\mensaje\util\Enlace.class
