C:\Users\rodrigo.martinezusam\Documents\NetBeansProjects\rapidolatarea\src\main\java\com\tarea\models\Tarea.java
C:\Users\rodrigo.martinezusam\Documents\NetBeansProjects\rapidolatarea\src\main\java\com\tarea\impl\usuarioimpl.java
C:\Users\rodrigo.martinezusam\Documents\NetBeansProjects\rapidolatarea\src\main\java\com\tarea\controler\usuariocontroler.java
C:\Users\rodrigo.martinezusam\Documents\NetBeansProjects\rapidolatarea\src\main\java\com\tarea\util\AbstractFacade.java
C:\Users\rodrigo.martinezusam\Documents\NetBeansProjects\rapidolatarea\src\main\java\com\tarea\util\Dao.java
C:\Users\rodrigo.martinezusam\Documents\NetBeansProjects\rapidolatarea\src\main\java\com\tarea\models\Usuario.java
