com\login\entity\usuario_.class
com\login\managed\usuarioBean.class
com\login\entity\rol_usuario.class
com\login\entity\empresa.class
com\login\entity\sucursal.class
com\login\entity\usuario.class
com\login\Dao\usuarioDAO.class
com\login\entity\rol_usuario_.class
com\login\entity\sucursal_.class
com\usam\util\InterfaceFacade.class
com\login\entity\empresa_.class
com\usam\util\AbstractFacade.class
